Aula2/atv1/simulation/qsim/atv1.msim.vcd
$comment
	File created using the following command:
		vcd file atv1.msim.vcd -direction
$end
$date
	Fri Aug 26 10:59:01 2022
$end
$version
	ModelSim Version 2020.1
$end
$timescale
	1ps
$end

$scope module ROM1024x8_vlg_vec_tst $end
$var reg 10 ! Endereco [9:0] $end
$var wire 1 " Dado [7] $end
$var wire 1 # Dado [6] $end
$var wire 1 $ Dado [5] $end
$var wire 1 % Dado [4] $end
$var wire 1 & Dado [3] $end
$var wire 1 ' Dado [2] $end
$var wire 1 ( Dado [1] $end
$var wire 1 ) Dado [0] $end

$scope module i1 $end
$var wire 1 * gnd $end
$var wire 1 + vcc $end
$var wire 1 , unknown $end
$var tri1 1 - devclrn $end
$var tri1 1 . devpor $end
$var tri1 1 / devoe $end
$var wire 1 0 Dado[0]~output_o $end
$var wire 1 1 Dado[1]~output_o $end
$var wire 1 2 Dado[2]~output_o $end
$var wire 1 3 Dado[3]~output_o $end
$var wire 1 4 Dado[4]~output_o $end
$var wire 1 5 Dado[5]~output_o $end
$var wire 1 6 Dado[6]~output_o $end
$var wire 1 7 Dado[7]~output_o $end
$var wire 1 8 Endereco[3]~input_o $end
$var wire 1 9 Endereco[2]~input_o $end
$var wire 1 : Endereco[1]~input_o $end
$var wire 1 ; Endereco[0]~input_o $end
$var wire 1 < Endereco[4]~input_o $end
$var wire 1 = Endereco[5]~input_o $end
$var wire 1 > Endereco[6]~input_o $end
$var wire 1 ? Endereco[7]~input_o $end
$var wire 1 @ Endereco[8]~input_o $end
$var wire 1 A Endereco[9]~input_o $end
$var wire 1 B memROM~0_combout $end
$var wire 1 C memROM~7_combout $end
$var wire 1 D memROM~1_combout $end
$var wire 1 E memROM~6_combout $end
$var wire 1 F memROM~5_combout $end
$var wire 1 G memROM~4_combout $end
$var wire 1 H memROM~3_combout $end
$var wire 1 I memROM~2_combout $end
$upscope $end
$upscope $end
$enddefinitions $end
#0
$dumpvars
b0 !
1)
0(
1'
1&
0%
0$
1#
0"
0*
1+
x,
1-
1.
1/
10
01
12
13
04
05
16
07
08
09
0:
0;
0<
0=
0>
0?
0@
0A
1B
1C
0D
1E
1F
0G
0H
1I
$end
#10000
b1 !
1;
1H
0F
0E
02
03
15
1$
0&
0'
#20000
b11 !
b10 !
0;
1:
1G
1E
0C
00
12
14
1%
1'
0)
#30000
b11 !
1;
0G
1F
0E
02
13
04
0%
1&
0'
#40000
b111 !
b101 !
b100 !
0;
0:
19
0F
1E
1C
10
12
03
0&
1'
1)
#50000
b101 !
1;
1G
14
1%
#60000
b111 !
b110 !
0;
1:
0E
1D
11
02
0'
1(
#70000
b111 !
1;
0I
0H
0G
0D
0C
00
01
04
05
06
0#
0$
0%
0(
0)
#80000
b1111 !
b1011 !
b1001 !
b1000 !
0;
0:
09
18
#90000
b1001 !
1;
#100000
b1011 !
b1010 !
0;
1:
#110000
b1011 !
1;
#120000
b1111 !
b1101 !
b1100 !
0;
0:
19
#130000
b1101 !
1;
#140000
b1111 !
b1110 !
0;
1:
#150000
b1111 !
1;
#160000
b11111 !
b10111 !
b10011 !
b10001 !
b10000 !
0;
0:
09
08
1<
0B
1I
1F
1E
1C
10
12
13
16
1#
1&
1'
1)
0I
0F
0E
0C
00
02
03
06
0#
0&
0'
0)
#170000
b10001 !
1;
#180000
b10011 !
b10010 !
0;
1:
#190000
b10011 !
1;
#200000
b10111 !
b10101 !
b10100 !
0;
0:
19
#210000
b10101 !
1;
#220000
b10111 !
b10110 !
0;
1:
#230000
b10111 !
1;
#240000
b11111 !
b11011 !
b11001 !
b11000 !
0;
0:
09
18
#250000
b11001 !
1;
#260000
b11011 !
b11010 !
0;
1:
#270000
b11011 !
1;
#280000
b11111 !
b11101 !
b11100 !
0;
0:
19
#290000
b11101 !
1;
#300000
b11111 !
b11110 !
0;
1:
#310000
b11111 !
1;
#320000
b111111 !
b101111 !
b100111 !
b100011 !
b100001 !
b100000 !
0;
0:
09
08
0<
1=
#330000
b100001 !
1;
#340000
b100011 !
b100010 !
0;
1:
#350000
b100011 !
1;
#360000
b100111 !
b100101 !
b100100 !
0;
0:
19
#370000
b100101 !
1;
#380000
b100111 !
b100110 !
0;
1:
#390000
b100111 !
1;
#400000
b101111 !
b101011 !
b101001 !
b101000 !
0;
0:
09
18
#410000
b101001 !
1;
#420000
b101011 !
b101010 !
0;
1:
#430000
b101011 !
1;
#440000
b101111 !
b101101 !
b101100 !
0;
0:
19
#450000
b101101 !
1;
#460000
b101111 !
b101110 !
0;
1:
#470000
b101111 !
1;
#480000
b111111 !
b110111 !
b110011 !
b110001 !
b110000 !
0;
0:
09
08
1<
#490000
b110001 !
1;
#500000
b110011 !
b110010 !
0;
1:
#510000
b110011 !
1;
#520000
b110111 !
b110101 !
b110100 !
0;
0:
19
#530000
b110101 !
1;
#540000
b110111 !
b110110 !
0;
1:
#550000
b110111 !
1;
#560000
b111111 !
b111011 !
b111001 !
b111000 !
0;
0:
09
18
#570000
b111001 !
1;
#580000
b111011 !
b111010 !
0;
1:
#590000
b111011 !
1;
#600000
b111111 !
b111101 !
b111100 !
0;
0:
19
#610000
b111101 !
1;
#620000
b111111 !
b111110 !
0;
1:
#630000
b111111 !
1;
#640000
b1111111 !
b1011111 !
b1001111 !
b1000111 !
b1000011 !
b1000001 !
b1000000 !
0;
0:
09
08
0<
0=
1>
#650000
b1000001 !
1;
#660000
b1000011 !
b1000010 !
0;
1:
#670000
b1000011 !
1;
#680000
b1000111 !
b1000101 !
b1000100 !
0;
0:
19
#690000
b1000101 !
1;
#700000
b1000111 !
b1000110 !
0;
1:
#710000
b1000111 !
1;
#720000
b1001111 !
b1001011 !
b1001001 !
b1001000 !
0;
0:
09
18
#730000
b1001001 !
1;
#740000
b1001011 !
b1001010 !
0;
1:
#750000
b1001011 !
1;
#760000
b1001111 !
b1001101 !
b1001100 !
0;
0:
19
#770000
b1001101 !
1;
#780000
b1001111 !
b1001110 !
0;
1:
#790000
b1001111 !
1;
#800000
b1011111 !
b1010111 !
b1010011 !
b1010001 !
b1010000 !
0;
0:
09
08
1<
#810000
b1010001 !
1;
#820000
b1010011 !
b1010010 !
0;
1:
#830000
b1010011 !
1;
#840000
b1010111 !
b1010101 !
b1010100 !
0;
0:
19
#850000
b1010101 !
1;
#860000
b1010111 !
b1010110 !
0;
1:
#870000
b1010111 !
1;
#880000
b1011111 !
b1011011 !
b1011001 !
b1011000 !
0;
0:
09
18
#890000
b1011001 !
1;
#900000
b1011011 !
b1011010 !
0;
1:
#910000
b1011011 !
1;
#920000
b1011111 !
b1011101 !
b1011100 !
0;
0:
19
#930000
b1011101 !
1;
#940000
b1011111 !
b1011110 !
0;
1:
#950000
b1011111 !
1;
#960000
b1111111 !
b1101111 !
b1100111 !
b1100011 !
b1100001 !
b1100000 !
0;
0:
09
08
0<
1=
#970000
b1100001 !
1;
#980000
b1100011 !
b1100010 !
0;
1:
#990000
b1100011 !
1;
